{
  "pages": [
    {
      "id": "MainPage",
      "isDefault": true
    }
  ],
  "viewMode": false,
  "appIsExample": false,
  "unreadCommentThreads": 0,
  "color": "#F3F1C7",
  "icon": "shake-hands",
  "unpublishedAppLayout": {
    "type": "DESKTOP"
  },
  "publishedAppLayout": {
    "type": "DESKTOP"
  },
  "evaluationVersion": 2,
  "applicationVersion": 1,
  "isManualUpdate": false,
  "deleted": false
}