{
  "unpublishedCollection": {
    "name": "charts",
    "pageId": "MainPage",
    "pluginId": "js-plugin",
    "pluginType": "JS",
    "actions": [],
    "archivedActions": [],
    "body": "export default {\n\tgetLikeability() {\n\t\treturn [{\"id\":1,\"first_name\":\"Nevins\",\"last_name\":\"Mattholie\",\"email\":\"nmattholie0@ocn.ne.jp\",\"gender\":\"Female\",\"likeability\":10,\"salary\":717886},\n{\"id\":2,\"first_name\":\"Ronica\",\"last_name\":\"Hitzschke\",\"email\":\"rhitzschke1@dot.gov\",\"gender\":\"Female\",\"likeability\":92,\"salary\":337392},\n{\"id\":3,\"first_name\":\"Elspeth\",\"last_name\":\"Schollar\",\"email\":\"eschollar2@devhub.com\",\"gender\":\"Male\",\"likeability\":73,\"salary\":987369},\n{\"id\":4,\"first_name\":\"Ogdon\",\"last_name\":\"Clemente\",\"email\":\"oclemente3@yandex.ru\",\"gender\":\"Male\",\"likeability\":53,\"salary\":774964},\n{\"id\":5,\"first_name\":\"Elizabet\",\"last_name\":\"Hars\",\"email\":\"ehars4@quantcast.com\",\"gender\":\"Male\",\"likeability\":35,\"salary\":378955},\n{\"id\":6,\"first_name\":\"Sharl\",\"last_name\":\"Blodgetts\",\"email\":\"sblodgetts5@opensource.org\",\"gender\":\"Female\",\"likeability\":97,\"salary\":945675},\n{\"id\":7,\"first_name\":\"Darrelle\",\"last_name\":\"Crowter\",\"email\":\"dcrowter6@about.me\",\"gender\":\"Male\",\"likeability\":67,\"salary\":837004},\n{\"id\":8,\"first_name\":\"Bernetta\",\"last_name\":\"Noni\",\"email\":\"bnoni7@webeden.co.uk\",\"gender\":\"Female\",\"likeability\":75,\"salary\":129878},\n{\"id\":9,\"first_name\":\"Dav\",\"last_name\":\"Patterfield\",\"email\":\"dpatterfield8@bravesites.com\",\"gender\":\"Male\",\"likeability\":51,\"salary\":130991},\n{\"id\":10,\"first_name\":\"Meggie\",\"last_name\":\"Potkin\",\"email\":\"mpotkin9@sina.com.cn\",\"gender\":\"Female\",\"likeability\":60,\"salary\":449950},\n{\"id\":11,\"first_name\":\"Meta\",\"last_name\":\"Blackham\",\"email\":\"mblackhama@g.co\",\"gender\":\"Female\",\"likeability\":51,\"salary\":119130},\n{\"id\":12,\"first_name\":\"Bernadette\",\"last_name\":\"Skellon\",\"email\":\"bskellonb@pinterest.com\",\"gender\":\"Genderqueer\",\"likeability\":31,\"salary\":860880},\n{\"id\":13,\"first_name\":\"Uriah\",\"last_name\":\"Cragell\",\"email\":\"ucragellc@sciencedaily.com\",\"gender\":\"Male\",\"likeability\":50,\"salary\":546772},\n{\"id\":14,\"first_name\":\"Glenden\",\"last_name\":\"De Cleyne\",\"email\":\"gdecleyned@huffingtonpost.com\",\"gender\":\"Female\",\"likeability\":27,\"salary\":589157},\n{\"id\":15,\"first_name\":\"Dolly\",\"last_name\":\"Derle\",\"email\":\"dderlee@soup.io\",\"gender\":\"Male\",\"likeability\":50,\"salary\":390319},\n{\"id\":16,\"first_name\":\"Claire\",\"last_name\":\"Ronnay\",\"email\":\"cronnayf@blogspot.com\",\"gender\":\"Female\",\"likeability\":27,\"salary\":572514},\n{\"id\":17,\"first_name\":\"Mattias\",\"last_name\":\"Frosch\",\"email\":\"mfroschg@ebay.co.uk\",\"gender\":\"Female\",\"likeability\":60,\"salary\":459812},\n{\"id\":18,\"first_name\":\"Camey\",\"last_name\":\"Colcomb\",\"email\":\"ccolcombh@dailymail.co.uk\",\"gender\":\"Male\",\"likeability\":96,\"salary\":7792},\n{\"id\":19,\"first_name\":\"Jojo\",\"last_name\":\"Minot\",\"email\":\"jminoti@jigsy.com\",\"gender\":\"Female\",\"likeability\":94,\"salary\":916606},\n{\"id\":20,\"first_name\":\"Winnie\",\"last_name\":\"Trustram\",\"email\":\"wtrustramj@xrea.com\",\"gender\":\"Female\",\"likeability\":34,\"salary\":101059},\n{\"id\":21,\"first_name\":\"Delphinia\",\"last_name\":\"Gillford\",\"email\":\"dgillfordk@bloomberg.com\",\"gender\":\"Female\",\"likeability\":83,\"salary\":605468},\n{\"id\":22,\"first_name\":\"Cleve\",\"last_name\":\"McCracken\",\"email\":\"cmccrackenl@rambler.ru\",\"gender\":\"Female\",\"likeability\":24,\"salary\":740953},\n{\"id\":23,\"first_name\":\"Edvard\",\"last_name\":\"Neve\",\"email\":\"enevem@japanpost.jp\",\"gender\":\"Male\",\"likeability\":24,\"salary\":676979},\n{\"id\":24,\"first_name\":\"Faina\",\"last_name\":\"Urpeth\",\"email\":\"furpethn@dion.ne.jp\",\"gender\":\"Male\",\"likeability\":19,\"salary\":427715},\n{\"id\":25,\"first_name\":\"Feliza\",\"last_name\":\"Winslett\",\"email\":\"fwinsletto@ifeng.com\",\"gender\":\"Genderqueer\",\"likeability\":39,\"salary\":609068}]\n\t\t\t.map(i => ({x: i.id, y: i.likeability}))\n\t},\n\tgetSalary() {\n\t\tconst data = [{\"id\":1,\"first_name\":\"Nevins\",\"last_name\":\"Mattholie\",\"email\":\"nmattholie0@ocn.ne.jp\",\"gender\":\"Female\",\"likeability\":10,\"salary\":717886},\n{\"id\":2,\"first_name\":\"Ronica\",\"last_name\":\"Hitzschke\",\"email\":\"rhitzschke1@dot.gov\",\"gender\":\"Female\",\"likeability\":92,\"salary\":337392},\n{\"id\":3,\"first_name\":\"Elspeth\",\"last_name\":\"Schollar\",\"email\":\"eschollar2@devhub.com\",\"gender\":\"Male\",\"likeability\":73,\"salary\":987369},\n{\"id\":4,\"first_name\":\"Ogdon\",\"last_name\":\"Clemente\",\"email\":\"oclemente3@yandex.ru\",\"gender\":\"Male\",\"likeability\":53,\"salary\":774964},\n{\"id\":5,\"first_name\":\"Elizabet\",\"last_name\":\"Hars\",\"email\":\"ehars4@quantcast.com\",\"gender\":\"Male\",\"likeability\":35,\"salary\":378955},\n{\"id\":6,\"first_name\":\"Sharl\",\"last_name\":\"Blodgetts\",\"email\":\"sblodgetts5@opensource.org\",\"gender\":\"Female\",\"likeability\":97,\"salary\":945675},\n{\"id\":7,\"first_name\":\"Darrelle\",\"last_name\":\"Crowter\",\"email\":\"dcrowter6@about.me\",\"gender\":\"Male\",\"likeability\":67,\"salary\":837004},\n{\"id\":8,\"first_name\":\"Bernetta\",\"last_name\":\"Noni\",\"email\":\"bnoni7@webeden.co.uk\",\"gender\":\"Female\",\"likeability\":75,\"salary\":129878},\n{\"id\":9,\"first_name\":\"Dav\",\"last_name\":\"Patterfield\",\"email\":\"dpatterfield8@bravesites.com\",\"gender\":\"Male\",\"likeability\":51,\"salary\":130991},\n{\"id\":10,\"first_name\":\"Meggie\",\"last_name\":\"Potkin\",\"email\":\"mpotkin9@sina.com.cn\",\"gender\":\"Female\",\"likeability\":60,\"salary\":449950},\n{\"id\":11,\"first_name\":\"Meta\",\"last_name\":\"Blackham\",\"email\":\"mblackhama@g.co\",\"gender\":\"Female\",\"likeability\":51,\"salary\":119130},\n{\"id\":12,\"first_name\":\"Bernadette\",\"last_name\":\"Skellon\",\"email\":\"bskellonb@pinterest.com\",\"gender\":\"Genderqueer\",\"likeability\":31,\"salary\":860880},\n{\"id\":13,\"first_name\":\"Uriah\",\"last_name\":\"Cragell\",\"email\":\"ucragellc@sciencedaily.com\",\"gender\":\"Male\",\"likeability\":50,\"salary\":546772},\n{\"id\":14,\"first_name\":\"Glenden\",\"last_name\":\"De Cleyne\",\"email\":\"gdecleyned@huffingtonpost.com\",\"gender\":\"Female\",\"likeability\":27,\"salary\":589157},\n{\"id\":15,\"first_name\":\"Dolly\",\"last_name\":\"Derle\",\"email\":\"dderlee@soup.io\",\"gender\":\"Male\",\"likeability\":50,\"salary\":390319},\n{\"id\":16,\"first_name\":\"Claire\",\"last_name\":\"Ronnay\",\"email\":\"cronnayf@blogspot.com\",\"gender\":\"Female\",\"likeability\":27,\"salary\":572514},\n{\"id\":17,\"first_name\":\"Mattias\",\"last_name\":\"Frosch\",\"email\":\"mfroschg@ebay.co.uk\",\"gender\":\"Female\",\"likeability\":60,\"salary\":459812},\n{\"id\":18,\"first_name\":\"Camey\",\"last_name\":\"Colcomb\",\"email\":\"ccolcombh@dailymail.co.uk\",\"gender\":\"Male\",\"likeability\":96,\"salary\":7792},\n{\"id\":19,\"first_name\":\"Jojo\",\"last_name\":\"Minot\",\"email\":\"jminoti@jigsy.com\",\"gender\":\"Female\",\"likeability\":94,\"salary\":916606},\n{\"id\":20,\"first_name\":\"Winnie\",\"last_name\":\"Trustram\",\"email\":\"wtrustramj@xrea.com\",\"gender\":\"Female\",\"likeability\":34,\"salary\":101059},\n{\"id\":21,\"first_name\":\"Delphinia\",\"last_name\":\"Gillford\",\"email\":\"dgillfordk@bloomberg.com\",\"gender\":\"Female\",\"likeability\":83,\"salary\":605468},\n{\"id\":22,\"first_name\":\"Cleve\",\"last_name\":\"McCracken\",\"email\":\"cmccrackenl@rambler.ru\",\"gender\":\"Female\",\"likeability\":24,\"salary\":740953},\n{\"id\":23,\"first_name\":\"Edvard\",\"last_name\":\"Neve\",\"email\":\"enevem@japanpost.jp\",\"gender\":\"Male\",\"likeability\":24,\"salary\":676979},\n{\"id\":24,\"first_name\":\"Faina\",\"last_name\":\"Urpeth\",\"email\":\"furpethn@dion.ne.jp\",\"gender\":\"Male\",\"likeability\":19,\"salary\":427715},\n{\"id\":25,\"first_name\":\"Feliza\",\"last_name\":\"Winslett\",\"email\":\"fwinsletto@ifeng.com\",\"gender\":\"Genderqueer\",\"likeability\":39,\"salary\":609068}];\n\t\tconst average = data.reduce((a, c) => a + c.salary, 0)/data.length;\n\t\tconst minimum = Math.min.apply(null, data.map(i => i.salary));\n\t\tconst maximum = Math.max.apply(null, data.map(i => i.salary));\n\t\treturn data.map(i => ({x: i.id, y: (i.salary - minimum)*100/maximum}));\n\t\t// return data.map(i => ({x: i.id, y: i.salary}));\n\t}\n}",
    "variables": []
  },
  "id": "MainPage_charts",
  "deleted": false,
  "gitSyncId": "61f62aea9d6d6a6720c9973b_61fa7c952cd3d95ca414a0a9"
}